<svg width="60" height="60" viewBox="0 0 60 60" fill="none" xmlns="http://www.w3.org/2000/svg">
<path d="M52.5543 20.4002C52.8798 19.0996 53.0444 17.7613 53.0444 16.4062C53.0444 7.35981 45.6845 0 36.6382 0C30.9527 0 25.7159 2.92745 22.7257 7.70751C21.8287 7.39064 20.8757 7.22587 19.92 7.22587C15.6707 7.22587 12.1485 10.398 11.5973 14.4987C5.10947 15.0568 0 20.5159 0 27.1459C0 34.1454 5.69459 39.84 12.6941 39.84H14.7657V54.8995C14.7657 56.575 16.4923 57.8903 19.8978 58.8089C22.7451 59.577 26.5106 60 30.5007 60C34.4908 60 38.2564 59.5771 41.1037 58.8089C44.5092 57.8903 46.2358 56.575 46.2358 54.8995V39.84H50.1306C55.5726 39.84 60 35.4125 60 29.9706C59.9999 25.3818 56.8831 21.4847 52.5543 20.4002ZM43.8919 54.889C43.8217 55.1204 43 55.9163 40.1609 56.6327C37.5457 57.2927 34.1148 57.6563 30.5006 57.6563C26.8865 57.6563 23.4557 57.2927 20.8403 56.6327C18.0018 55.9164 17.1799 55.1208 17.1093 54.8892V50.9092C17.8631 51.2942 18.7976 51.6382 19.9137 51.9392C22.761 52.7072 26.5266 53.1303 30.5167 53.1303C34.5069 53.1303 38.2725 52.7073 41.1198 51.9392C42.22 51.6423 43.1438 51.304 43.8919 50.9256V54.889ZM19.9061 38.6468C22.7587 39.4162 26.5213 39.84 30.5007 39.84C34.4803 39.84 38.2428 39.4162 41.0954 38.6468C42.2071 38.3469 43.1391 38.0048 43.8919 37.6223V41.3292C43.8216 41.5606 43 42.3564 40.1609 43.0728C37.5457 43.7328 34.1148 44.0963 30.5006 44.0963C26.8865 44.0963 23.4557 43.7328 20.8403 43.0728C18.0018 42.3564 17.1799 41.561 17.1093 41.3293V37.6223C17.8624 38.0047 18.7942 38.3468 19.9061 38.6468ZM17.1139 34.7396C17.2123 34.4921 18.0637 33.71 20.8612 33.0056C23.4796 32.3463 26.903 31.9832 30.5007 31.9832C34.0985 31.9832 37.5219 32.3463 40.1403 33.0057C42.9378 33.7101 43.7893 34.4922 43.8877 34.7397C43.7893 34.9872 42.9379 35.7692 40.1403 36.4738C37.5219 37.1332 34.0985 37.4963 30.5007 37.4963C26.903 37.4963 23.4796 37.1332 20.8613 36.4738C18.0637 35.7691 17.2122 34.9871 17.1139 34.7396ZM43.8921 48.057C43.7532 48.3277 42.8792 49.081 40.1771 49.7629C37.5618 50.4229 34.131 50.7864 30.5167 50.7864C26.9025 50.7864 23.4717 50.4229 20.8564 49.7629C18.0173 49.0464 17.1956 48.2507 17.1254 48.0193C17.1249 47.9598 17.1184 47.9018 17.1094 47.8448V44.2271C17.8604 44.6088 18.7895 44.95 19.8978 45.249C22.7451 46.017 26.5106 46.4401 30.5007 46.4401C34.4908 46.4401 38.2564 46.0171 41.1037 45.249C42.2118 44.95 43.1411 44.6089 43.8921 44.2271V48.057ZM50.1306 37.4962H46.2358V34.7396C46.2358 33.0673 44.5064 31.7526 41.0955 30.8326C38.2429 30.0632 34.4804 29.6393 30.5009 29.6393C26.5214 29.6393 22.7588 30.063 19.9062 30.8326C16.4954 31.7528 14.7659 33.0673 14.7659 34.7396V37.4962H12.6943C6.98693 37.4962 2.34374 32.8531 2.34374 27.1459C2.34374 21.4388 6.98693 16.7956 12.6941 16.7956C13.3413 16.7956 13.8659 16.271 13.8659 15.6237C13.8659 12.2855 16.5817 9.56961 19.9199 9.56961C20.8936 9.56961 21.8228 9.79344 22.6818 10.2346C23.2496 10.5264 23.9464 10.31 24.249 9.74809C26.7092 5.18096 31.4564 2.34374 36.6382 2.34374C44.3922 2.34374 50.7006 8.65215 50.7006 16.4062C50.7006 17.9602 50.4488 19.4872 49.952 20.9447C49.8372 21.2819 49.8818 21.653 50.0736 21.9534C50.2653 22.2536 50.5831 22.4503 50.9373 22.4881C54.7677 22.8957 57.6561 26.1124 57.6561 29.9706C57.6561 34.1203 54.2802 37.4962 50.1306 37.4962Z" fill="#1D9CE3"/>
</svg>
