<svg width="12" height="21" viewBox="0 0 12 21" fill="none" xmlns="http://www.w3.org/2000/svg">
<path d="M12 11.2857L2.32403 20.2299C1.43818 21.0487 0.128519 19.889 0.834167 18.9106L6.33333 11.2857L0.556188 2.47435C-0.106291 1.46393 1.25824 0.363422 2.10544 1.22486L12 11.2857Z" fill="#BFE8FF"/>
</svg>
