<svg width="60" height="60" viewBox="0 0 60 60" fill="none" xmlns="http://www.w3.org/2000/svg">
<path d="M7.49268 28.7156C7.49268 31.1752 9.49364 33.1762 11.9533 33.1762C14.4129 33.1762 16.4139 31.1752 16.4139 28.7156C16.4139 26.256 14.4129 24.2549 11.9533 24.2549C9.49364 24.2549 7.49268 26.256 7.49268 28.7156ZM14.0701 28.7156C14.0701 29.8828 13.1204 30.8325 11.9533 30.8325C10.7861 30.8325 9.83641 29.8828 9.83641 28.7156C9.83641 27.5483 10.7861 26.5987 11.9533 26.5987C13.1204 26.5987 14.0701 27.5483 14.0701 28.7156Z" fill="#1D9CE3"/>
<path d="M23.9061 37.2654V33.9885C23.9061 33.3412 23.3813 32.8166 22.7342 32.8166C22.0871 32.8166 21.5623 33.3412 21.5623 33.9885V37.2654C21.5623 37.9115 21.0366 38.4372 20.3905 38.4372H3.5156C2.86943 38.4372 2.34373 37.9115 2.34373 37.2654V19.2186H21.5623V34.4172C21.5623 35.0644 22.0871 35.5891 22.7342 35.5891C23.3813 35.5891 23.9061 35.0644 23.9061 34.4172V3.5156C23.9061 1.5771 22.329 0 20.3905 0H3.5156C1.5771 0 0 1.5771 0 3.5156V37.2654C0 39.2038 1.5771 40.7809 3.5156 40.7809H20.3905C22.329 40.7809 23.9061 39.2038 23.9061 37.2654ZM21.5623 11.2499H2.34373V7.96869H21.5623V11.2499ZM2.34373 16.8749V13.5936H21.5623V16.8749H2.34373ZM3.5156 2.34373H20.3905C21.0366 2.34373 21.5623 2.86943 21.5623 3.5156V5.62496H2.34373V3.5156C2.34373 2.86943 2.86943 2.34373 3.5156 2.34373Z" fill="#1D9CE3"/>
<path d="M48.0465 43.4731C45.5869 43.4731 43.5859 45.4742 43.5859 47.9337C43.5859 50.3933 45.5869 52.3943 48.0465 52.3943C50.5062 52.3943 52.5071 50.3934 52.5071 47.9337C52.5071 45.4741 50.5062 43.4731 48.0465 43.4731ZM48.0465 50.0507C46.8792 50.0507 45.9297 49.101 45.9297 47.9339C45.9297 46.7666 46.8794 45.817 48.0465 45.817C49.2137 45.817 50.1634 46.7667 50.1634 47.9339C50.1634 49.101 49.2138 50.0507 48.0465 50.0507Z" fill="#1D9CE3"/>
<path d="M56.4842 19.2188H39.6093C37.6708 19.2188 36.0938 20.7958 36.0938 22.7343V56.4841C36.0938 58.4226 37.6708 59.9997 39.6093 59.9997H56.4842C58.4227 59.9997 59.9998 58.4226 59.9998 56.4841V22.7343C59.9998 20.7958 58.4227 19.2188 56.4842 19.2188ZM57.6561 30.4687H38.4375V27.1874H57.6561V30.4687ZM38.4375 32.8124H57.6561V36.0936H38.4375V32.8124ZM39.6093 21.5625H56.4842C57.1304 21.5625 57.6561 22.0882 57.6561 22.7343V24.8437H38.4375V22.7343C38.4375 22.0882 38.9632 21.5625 39.6093 21.5625ZM56.4842 57.656H39.6093C38.9632 57.656 38.4375 57.1303 38.4375 56.4841V38.4374H57.6561V56.4841C57.6561 57.1303 57.1304 57.656 56.4842 57.656Z" fill="#1D9CE3"/>
<path d="M28.3594 7.03123H46.8748V11.9363L46.6933 11.7548C46.2357 11.2972 45.4939 11.2972 45.036 11.7548C44.5783 12.2124 44.5783 12.9544 45.036 13.412L47.218 15.5942C47.4378 15.8139 47.7358 15.9374 48.0466 15.9374C48.3574 15.9374 48.6554 15.8139 48.8752 15.5942L51.0572 13.412C51.5149 12.9544 51.5149 12.2124 51.0572 11.7548C50.5995 11.2972 49.8577 11.2972 49.3999 11.7548L49.2186 11.9363V5.85937C49.2186 5.21214 48.6938 4.6875 48.0467 4.6875H28.3594C27.7123 4.6875 27.1875 5.21214 27.1875 5.85937C27.1875 6.50659 27.7123 7.03123 28.3594 7.03123Z" fill="#1D9CE3"/>
<path d="M31.6398 52.9682H13.1244V48.0631L13.3059 48.2446C13.5347 48.4735 13.8346 48.5879 14.1345 48.5879C14.4344 48.5879 14.7343 48.4734 14.9631 48.2446C15.4207 47.787 15.4207 47.045 14.9631 46.5874L12.7811 44.4052C12.5613 44.1855 12.2633 44.062 11.9525 44.062C11.6417 44.062 11.3437 44.1855 11.1239 44.4052L8.94184 46.5874C8.48423 47.045 8.48423 47.787 8.94184 48.2446C9.39957 48.7023 10.1414 48.7023 10.5992 48.2446L10.7806 48.0631V54.1401C10.7806 54.7873 11.3054 55.3119 11.9525 55.3119H31.6398C32.2869 55.3119 32.8117 54.7873 32.8117 54.1401C32.8117 53.4928 32.2869 52.9682 31.6398 52.9682Z" fill="#1D9CE3"/>
<path d="M22.7344 27.5435C22.4262 27.5435 22.1238 27.6677 21.9059 27.8868C21.6879 28.1048 21.5625 28.406 21.5625 28.7153C21.5625 29.0235 21.6878 29.3259 21.9059 29.5438C22.1239 29.7618 22.4262 29.8872 22.7344 29.8872C23.0426 29.8872 23.3449 29.7618 23.5628 29.5438C23.7807 29.3259 23.9062 29.0235 23.9062 28.7153C23.9062 28.406 23.7808 28.1048 23.5628 27.8868C23.3449 27.6677 23.0426 27.5435 22.7344 27.5435Z" fill="#1D9CE3"/>
</svg>
