<svg width="1448" height="747" viewBox="0 0 1448 747" fill="none" xmlns="http://www.w3.org/2000/svg">
<path d="M556.461 372.667C488.726 410.671 414.158 439.398 345.599 475.816" stroke="url(#paint0_linear)" stroke-miterlimit="10"/>
<path d="M304.599 528.929C389.068 473.222 489.989 438.843 579.377 388.712C589.575 382.995 599.658 377.034 609.599 370.83" stroke="url(#paint1_linear)" stroke-miterlimit="10"/>
<path d="M835.297 185.411C781.237 278.85 696.487 351.953 602.336 404.749C492.223 466.511 365.03 504.925 270.599 586.099" stroke="url(#paint2_linear)" stroke-miterlimit="10"/>
<path d="M153.527 935.179C142.269 829.133 178.525 718.955 250.495 640.29C290.277 596.863 338.38 564.312 389.971 536.229C465.956 494.867 549.506 463.2 625.177 420.762C652.127 405.648 678.323 388.91 703.291 370.547C767.61 323.241 823.771 265.154 863.642 196.274" stroke="url(#paint3_linear)" stroke-miterlimit="10"/>
<path d="M165.562 963.053C154.018 854.596 191.193 741.858 264.835 661.429C314.841 606.865 377.692 569.076 444.217 535.923C511.589 502.347 582.73 473.526 648.112 436.849C746.704 381.558 835.445 305.007 892.053 207.194C906.123 182.882 918.059 157.176 927.556 130.608" stroke="url(#paint4_linear)" stroke-miterlimit="10"/>
<path d="M177.613 990.948C165.844 880.035 203.774 764.789 279.12 682.579C341.608 614.375 423.717 571.809 508.326 532.207C563.061 506.587 618.842 482.207 671.034 452.928C690.802 441.843 710.183 429.923 729.006 417.169C806.171 364.88 873.947 298.553 920.484 218.088C942.373 180.239 959.207 139.111 969.894 96.6087" stroke="url(#paint5_linear)" stroke-miterlimit="10"/>
<path d="M189.664 1018.84C177.629 905.503 216.398 787.7 293.402 703.649C364.925 625.562 461.61 580.361 558.872 535.485C604.623 514.376 650.503 493.338 693.951 468.984C703.12 463.845 712.207 458.529 721.197 453.037C813.227 396.809 894.979 322.081 948.887 228.963C975.568 182.876 994.896 131.98 1004.99 79.6088" stroke="url(#paint6_linear)" stroke-miterlimit="10"/>
<path d="M201.703 1046.74C189.428 930.992 229.021 810.612 307.678 724.754C388.854 636.183 501.723 589.009 611.884 537.689C647.549 521.075 682.93 504.025 716.86 484.996C732.537 476.202 747.981 466.905 763.114 457.104C828.33 414.865 887.756 363.276 935.1 302.329C950.519 282.48 964.656 261.638 977.295 239.804C983.251 229.515 988.849 218.993 994.067 208.273C997.503 201.215 1000.78 194.071 1003.88 186.852C1018.79 152.149 1029.77 115.697 1036.2 78.6086" stroke="url(#paint7_linear)" stroke-miterlimit="10"/>
<path d="M213.754 1074.64C201.204 956.406 241.68 833.53 321.976 745.914C414.53 644.824 547.48 596.561 671.882 536.221C694.925 525.044 717.675 513.453 739.82 501.035C755.226 492.394 770.411 483.277 785.305 473.685C874.311 416.357 952.889 342.026 1005.74 250.673C1067.44 144.033 1091.43 12.8575 1056.27 -105.222" stroke="url(#paint8_linear)" stroke-miterlimit="10"/>
<path d="M225.84 1102.53C213.031 981.854 254.303 856.441 336.288 766.954C438.493 655.343 589.021 606.833 724.485 537.513C737.375 530.917 750.129 524.132 762.691 517.087C818.395 485.854 871.254 448.53 918.042 405.111C927.531 396.306 936.769 387.25 945.731 377.943C979.636 342.736 1009.58 303.94 1034.11 261.553C1042.12 247.716 1049.51 233.474 1056.23 218.906M1056.23 218.906C1058.8 213.336 1061.27 207.718 1063.64 202.057M1056.23 218.906L1063.64 202.057M1063.64 202.057C1077.59 168.77 1088.07 133.988 1094.59 98.6085" stroke="url(#paint9_linear)" stroke-miterlimit="10"/>
<path d="M237.847 1130.44C224.809 1007.35 266.894 879.358 350.531 788.066C464.776 663.355 638.096 615.862 785.573 533.138C833.072 506.48 878.557 475.49 920.097 440.161C934.428 427.972 948.29 415.266 961.603 402.044C1000.62 363.296 1034.91 320.11 1062.49 272.479C1095.39 215.662 1118.01 152.107 1127.35 87.1082" stroke="url(#paint10_linear)" stroke-miterlimit="10"/>
<path d="M249.891 1158.3C236.567 1032.73 279.513 902.248 364.813 809.136C481.321 681.979 658.086 633.553 808.522 549.178C857.852 521.509 905.052 489.246 948.042 452.384C980.476 424.573 1010.51 394.143 1037.26 361.095C1049.87 345.513 1061.75 329.349 1072.8 312.603C1079.12 303.026 1085.17 293.26 1090.93 283.303C1120.87 231.573 1142.46 174.406 1153.51 115.609" stroke="url(#paint11_linear)" stroke-miterlimit="10"/>
<path d="M261.947 1186.23C248.355 1058.22 292.142 925.193 379.095 830.274C497.869 700.625 678.075 651.243 831.437 565.223C900.477 526.5 965.416 478.947 1020.78 422.554C1032.06 411.065 1042.94 399.208 1053.38 386.985C1078.05 358.099 1100.24 327.164 1119.34 294.178C1186.19 178.724 1212.16 36.6934 1174.09 -91.1368" stroke="url(#paint12_linear)" stroke-miterlimit="10"/>
<path d="M1147.75 305.052C1079.65 422.712 972.927 514.77 854.353 581.268C839.328 589.696 824.05 597.779 808.599 605.622" stroke="url(#paint13_linear)" stroke-miterlimit="10"/>
<path d="M877.269 597.313C998.058 529.574 1106.78 435.784 1176.16 315.927" stroke="url(#paint14_linear)" stroke-miterlimit="10"/>
<path d="M1262.45 -80.577C1302.7 54.5824 1275.22 204.744 1204.57 326.801C1149.12 422.598 1068.99 502.047 977.599 565.144" stroke="url(#paint15_linear)" stroke-miterlimit="10"/>
<path d="M1232.94 337.683C1188.72 414.09 1129.08 480.272 1060.6 536.246" stroke="url(#paint16_linear)" stroke-miterlimit="10"/>
<defs>
<linearGradient id="paint0_linear" x1="394.908" y1="-56.4538" x2="545.023" y2="774.175" gradientUnits="userSpaceOnUse">
<stop stop-color="#8FD7FF" stop-opacity="0"/>
<stop offset="0.394619" stop-color="#3EB2F3"/>
<stop offset="1" stop-color="#95D9FF" stop-opacity="0"/>
</linearGradient>
<linearGradient id="paint1_linear" x1="413.832" y1="-50.9897" x2="567.655" y2="800.156" gradientUnits="userSpaceOnUse">
<stop stop-color="#8FD7FF" stop-opacity="0"/>
<stop offset="0.394619" stop-color="#3EB2F3"/>
<stop offset="1" stop-color="#95D9FF" stop-opacity="0"/>
</linearGradient>
<linearGradient id="paint2_linear" x1="432.763" y1="-45.6763" x2="590.322" y2="826.144" gradientUnits="userSpaceOnUse">
<stop stop-color="#8FD7FF" stop-opacity="0"/>
<stop offset="0.394619" stop-color="#3EB2F3"/>
<stop offset="1" stop-color="#95D9FF" stop-opacity="0"/>
</linearGradient>
<linearGradient id="paint3_linear" x1="451.661" y1="-40.172" x2="612.926" y2="852.155" gradientUnits="userSpaceOnUse">
<stop stop-color="#8FD7FF" stop-opacity="0"/>
<stop offset="0.394619" stop-color="#3EB2F3"/>
<stop offset="1" stop-color="#95D9FF" stop-opacity="0"/>
</linearGradient>
<linearGradient id="paint4_linear" x1="470.575" y1="-34.7754" x2="635.556" y2="878.113" gradientUnits="userSpaceOnUse">
<stop stop-color="#8FD7FF" stop-opacity="0"/>
<stop offset="0.394619" stop-color="#3EB2F3"/>
<stop offset="1" stop-color="#95D9FF" stop-opacity="0"/>
</linearGradient>
<linearGradient id="paint5_linear" x1="489.487" y1="-29.3189" x2="658.178" y2="904.099" gradientUnits="userSpaceOnUse">
<stop stop-color="#8FD7FF" stop-opacity="0"/>
<stop offset="0.394619" stop-color="#3EB2F3"/>
<stop offset="1" stop-color="#95D9FF" stop-opacity="0"/>
</linearGradient>
<linearGradient id="paint6_linear" x1="508.408" y1="-23.9002" x2="680.816" y2="930.08" gradientUnits="userSpaceOnUse">
<stop stop-color="#8FD7FF" stop-opacity="0"/>
<stop offset="0.394619" stop-color="#3EB2F3"/>
<stop offset="1" stop-color="#95D9FF" stop-opacity="0"/>
</linearGradient>
<linearGradient id="paint7_linear" x1="527.322" y1="-18.4797" x2="703.445" y2="956.063" gradientUnits="userSpaceOnUse">
<stop stop-color="#8FD7FF" stop-opacity="0"/>
<stop offset="0.394619" stop-color="#3EB2F3"/>
<stop offset="1" stop-color="#95D9FF" stop-opacity="0"/>
</linearGradient>
<linearGradient id="paint8_linear" x1="546.242" y1="-13.0471" x2="726.079" y2="982.046" gradientUnits="userSpaceOnUse">
<stop stop-color="#8FD7FF" stop-opacity="0"/>
<stop offset="0.394619" stop-color="#3EB2F3"/>
<stop offset="1" stop-color="#95D9FF" stop-opacity="0"/>
</linearGradient>
<linearGradient id="paint9_linear" x1="565.178" y1="-7.63174" x2="748.734" y2="1008.04" gradientUnits="userSpaceOnUse">
<stop stop-color="#8FD7FF" stop-opacity="0"/>
<stop offset="0.394619" stop-color="#3EB2F3"/>
<stop offset="1" stop-color="#95D9FF" stop-opacity="0"/>
</linearGradient>
<linearGradient id="paint10_linear" x1="584.072" y1="-2.19579" x2="771.342" y2="1034.02" gradientUnits="userSpaceOnUse">
<stop stop-color="#8FD7FF" stop-opacity="0"/>
<stop offset="0.394619" stop-color="#3EB2F3"/>
<stop offset="1" stop-color="#95D9FF" stop-opacity="0"/>
</linearGradient>
<linearGradient id="paint11_linear" x1="602.986" y1="3.20196" x2="793.97" y2="1059.97" gradientUnits="userSpaceOnUse">
<stop stop-color="#8FD7FF" stop-opacity="0"/>
<stop offset="0.394619" stop-color="#3EB2F3"/>
<stop offset="1" stop-color="#95D9FF" stop-opacity="0"/>
</linearGradient>
<linearGradient id="paint12_linear" x1="621.912" y1="8.65473" x2="816.612" y2="1085.99" gradientUnits="userSpaceOnUse">
<stop stop-color="#8FD7FF" stop-opacity="0"/>
<stop offset="0.394619" stop-color="#3EB2F3"/>
<stop offset="1" stop-color="#95D9FF" stop-opacity="0"/>
</linearGradient>
<linearGradient id="paint13_linear" x1="640.824" y1="14.0761" x2="839.24" y2="1111.97" gradientUnits="userSpaceOnUse">
<stop stop-color="#8FD7FF" stop-opacity="0"/>
<stop offset="0.394619" stop-color="#3EB2F3"/>
<stop offset="1" stop-color="#95D9FF" stop-opacity="0"/>
</linearGradient>
<linearGradient id="paint14_linear" x1="659.74" y1="19.4955" x2="861.872" y2="1137.95" gradientUnits="userSpaceOnUse">
<stop stop-color="#8FD7FF" stop-opacity="0"/>
<stop offset="0.394619" stop-color="#3EB2F3"/>
<stop offset="1" stop-color="#95D9FF" stop-opacity="0"/>
</linearGradient>
<linearGradient id="paint15_linear" x1="678.659" y1="24.9276" x2="884.507" y2="1163.95" gradientUnits="userSpaceOnUse">
<stop stop-color="#8FD7FF" stop-opacity="0"/>
<stop offset="0.394619" stop-color="#3EB2F3"/>
<stop offset="1" stop-color="#95D9FF" stop-opacity="0"/>
</linearGradient>
<linearGradient id="paint16_linear" x1="697.557" y1="30.3506" x2="907.121" y2="1189.93" gradientUnits="userSpaceOnUse">
<stop stop-color="#8FD7FF" stop-opacity="0"/>
<stop offset="0.394619" stop-color="#3EB2F3"/>
<stop offset="1" stop-color="#95D9FF" stop-opacity="0"/>
</linearGradient>
</defs>
</svg>
