<svg width="80" height="80" viewBox="0 0 80 80" fill="none" xmlns="http://www.w3.org/2000/svg">
<g clip-path="url(#clip0)">
<path d="M53.1291 76.9184L76.3947 70.3549C77.6619 69.9981 78.7163 69.1659 79.3636 68.0112C80.011 66.8567 80.1708 65.5232 79.8136 64.2584L73.2497 40.9927C73.0741 40.3699 72.4268 40.0074 71.8041 40.1829L65.886 41.8507C64.3061 38.3407 60.3408 36.4145 56.5233 37.4902C54.4911 38.0635 52.8035 39.3948 51.7708 41.2387C50.9318 42.7373 50.6075 44.4281 50.8232 46.0985L44.9055 47.7699C44.6064 47.8545 44.3532 48.0541 44.2014 48.3256C44.0496 48.5968 44.0119 48.9171 44.0963 49.2163L45.7674 55.1327C44.2268 55.8229 42.9536 56.9835 42.1146 58.4827C41.446 59.6777 41.1054 60.9954 41.1054 62.3281C41.1054 63.0504 41.2055 63.7773 41.4075 64.4912C42.4822 68.3049 46.1957 70.6774 50.0154 70.1907L51.683 76.1084C51.7674 76.4076 51.9671 76.661 52.2383 76.8131C52.5094 76.9649 52.8299 77.0029 53.1291 76.9184ZM51.9766 68.5104C51.8922 68.2112 51.6927 67.9579 51.4214 67.8059C51.1502 67.6538 50.8299 67.6159 50.5308 67.7002C47.5761 68.5329 44.4954 66.8081 43.6627 63.854C43.258 62.4243 43.4344 60.9231 44.1596 59.627C44.8858 58.3291 46.075 57.392 47.508 56.9881C47.8072 56.9037 48.0608 56.704 48.2127 56.4326C48.3114 56.256 48.3621 56.0587 48.3621 55.8601C48.3621 55.7532 48.3475 55.6462 48.318 55.5415L46.67 49.7068L52.5049 48.0588C53.1275 47.8829 53.49 47.2356 53.3143 46.6127C52.9108 45.1835 53.0889 43.6816 53.8157 42.3837C54.5424 41.0859 55.73 40.1491 57.1594 39.7459C60.1163 38.9126 63.1991 40.6373 64.0314 43.5907C64.2071 44.2137 64.8543 44.5763 65.4772 44.4007L71.3122 42.7565L77.5582 64.8946C77.745 65.5567 77.6605 66.2565 77.3194 66.8648C76.9782 67.4732 76.4243 67.9115 75.7589 68.0988L53.621 74.3443L51.9766 68.5104Z" fill="#146FA1"/>
<path d="M31.5908 61.2663L35.8516 61.2663C36.4988 61.2663 37.0234 60.7418 37.0234 60.0945L37.0234 52.862C37.0234 52.2148 36.4988 51.6901 35.8516 51.6901C32.7831 51.6901 30.2867 49.1938 30.2867 46.1254C30.2867 43.0545 32.7831 40.5562 35.8516 40.5562C36.4988 40.5562 37.0234 40.0317 37.0234 39.3843L37.0234 33.3237L43.0888 33.3237C43.7359 33.3237 44.2606 32.7992 44.2606 32.1518C44.2606 29.0835 46.757 26.5871 49.8255 26.5871C52.8963 26.5871 55.3947 29.0834 55.3947 32.1518C55.3947 32.7992 55.9194 33.3237 56.5666 33.3237L63.7994 33.3237C64.4466 33.3237 64.9713 32.7992 64.9713 32.1518L64.9713 7.97838C64.9713 5.254 62.7528 3.0376 60.0258 3.0376L11.6775 3.0376C8.95298 3.0376 6.73657 5.254 6.73657 7.97838L6.73657 10.3567L6.73641 18L6.73641 26.0045L6.73641 49.1093C6.73641 49.7567 7.2611 50.2812 7.90828 50.2812C8.55547 50.2812 9.08016 49.7567 9.08016 49.1093L9.08016 33.3237L34.6797 33.3237L34.6797 38.2992C30.8727 38.8676 27.943 42.1606 27.943 46.1254C27.943 50.0879 30.8727 53.3792 34.6797 53.9471L34.6797 58.9226L30.5056 58.9226L23.5001 58.9226L17.0278 58.9226L11.6774 58.9226C10.2452 58.9226 9.08001 57.7574 9.08001 56.3253L9.08001 48.207C9.08001 47.5596 8.55532 47.0351 7.90813 47.0351C7.26095 47.0351 6.73626 47.5596 6.73626 48.207L6.73626 56.3252C6.73626 59.0496 8.95282 61.2662 11.6772 61.2662L15.9422 61.2662L23.5001 61.2663L31.5908 61.2663ZM60.0256 5.38135C61.4602 5.38135 62.6273 6.5465 62.6273 7.97854L62.6273 30.9801L57.6516 30.9801C57.0833 27.1732 53.7902 24.2437 49.8253 24.2437C45.8627 24.2437 42.5714 27.1734 42.0033 30.9801L37.0233 30.9801L37.0233 24.9195C37.0233 24.2721 36.4986 23.7476 35.8514 23.7476C32.783 23.7476 30.2866 21.2493 30.2866 18.1785C30.2866 15.1103 32.783 12.6138 35.8514 12.6138C36.4986 12.6138 37.0233 12.0893 37.0233 11.442L37.0233 5.38135L60.0256 5.38135ZM9.08016 24.9193C9.08016 24.272 9.08016 23.7264 9.08016 23.7264C9.08016 23.7264 9.08016 21.0708 9.08016 18C9.08016 14.9317 9.08016 13 9.08016 13C9.08016 13 9.08016 12.0892 9.08016 11.4418L9.08016 7.97838C9.08016 6.54635 10.2453 5.38119 11.6775 5.38119L34.6797 5.38119L34.6797 10.3567C30.8727 10.9246 27.943 14.2159 27.943 18.1784C27.943 22.1432 30.8727 25.436 34.6797 26.0045L34.6797 30.9799L9.08016 30.9799L9.08016 24.9193Z" fill="#146FA1"/>
</g>
<defs>
<clipPath id="clip0">
<rect width="80" height="80" fill="white" transform="translate(80) rotate(90)"/>
</clipPath>
</defs>
</svg>
