<svg width="80" height="80" viewBox="0 0 80 80" fill="none" xmlns="http://www.w3.org/2000/svg">
<g clip-path="url(#clip0)">
<path d="M18.1057 79.5379C18.7124 80.1482 19.7 80.155 20.3146 79.5507L27.9027 72.0898C29.1918 70.8032 29.5838 68.8982 29.0169 67.2424L30.6492 65.6713C31.5279 64.8241 32.685 64.3572 33.9081 64.3572H54.7147C58.406 64.3572 61.8949 62.9424 64.5398 60.3735C64.6487 60.2679 63.7136 61.3671 78.7344 43.4496C80.9623 40.819 80.629 36.8688 77.9908 34.6429C75.3691 32.4377 71.4417 32.7544 69.2077 35.3399L59.9722 44.8138C58.806 43.3813 57.0276 42.4883 55.1061 42.4883H37.6532C35.1697 41.4513 32.5346 40.9264 29.8156 40.9264C22.2789 40.9264 15.6981 44.4006 12.1664 50.9142C10.6785 50.6329 9.10928 51.0821 7.98037 52.2088L0.534798 59.6618C-0.0730787 60.2703 -0.0743017 61.2548 0.532352 61.8652L18.1057 79.5379ZM29.815 44.0502C32.2123 44.0502 34.53 44.5318 36.7053 45.4815C36.9034 45.5682 37.1169 45.6127 37.3327 45.6127H55.1061C56.8031 45.6127 58.2366 46.9939 58.2366 48.7365C58.2366 50.4595 56.8325 51.8609 55.1061 51.8609H42.3364C41.4723 51.8609 40.7715 52.5603 40.7715 53.4228C40.7715 54.2858 41.4723 54.9847 42.3364 54.9847H55.1061C58.5583 54.9847 61.3665 52.1819 61.3665 48.7365C61.3665 48.4618 61.3469 48.1896 61.3115 47.9198C70.2455 38.7542 71.5053 37.4664 71.5591 37.4023C72.6746 36.0882 74.6548 35.9216 75.9721 37.0299C77.2905 38.1426 77.4575 40.1177 76.339 41.4391L62.3009 58.1884C60.251 60.1525 57.5596 61.2334 54.7147 61.2334H33.9081C31.8692 61.2334 29.9391 62.0116 28.4751 63.4234L27.145 64.7045L14.8835 52.4676C17.7492 47.102 23.1265 44.0502 29.815 44.0502ZM10.1954 54.4164C10.7115 53.9013 11.5041 53.8085 12.1334 54.1967C12.4043 54.3615 11.6264 53.6547 25.6895 67.6708C26.3151 68.2952 26.2815 69.2901 25.6981 69.8724L19.2291 76.2328L3.8506 60.7671L10.1954 54.4164Z" fill="#146FA1"/>
<path d="M60.833 13.2857L54.3918 6H44.9448M60.833 13.2857L50.6703 13.1351M60.833 13.2857L44.9448 30M29.0566 12.8571L35.4978 6H44.9448M29.0566 12.8571L38.7899 13.0019M29.0566 12.8571L44.9448 30M44.9448 6L38.7899 13.0019M44.9448 6L50.6703 13.1351M38.7899 13.0019L50.6703 13.1351M38.7899 13.0019L44.9448 30M50.6703 13.1351L44.9448 30" stroke="#146FA1" stroke-width="2.5"/>
</g>
<defs>
<clipPath id="clip0">
<rect width="80" height="80" fill="white"/>
</clipPath>
</defs>
</svg>
