<svg width="330" height="311" viewBox="0 0 330 311" fill="none" xmlns="http://www.w3.org/2000/svg">
<path d="M94.2645 112.472L94.6752 111.76L93.4426 112.472H94.2645ZM95.0864 230.825V112.472H93.4426V230.825H95.0864ZM93.8538 113.184L108.034 121.365L108.856 119.941L94.6752 111.76L93.8538 113.184Z" fill="#1B4270"/>
<path fill-rule="evenodd" clip-rule="evenodd" d="M1 100.473L58.3062 133.14V164.656L1 131.899V100.473Z" fill="white"/>
<path fill-rule="evenodd" clip-rule="evenodd" d="M1 143.262L58.3062 175.929V207.445L1 174.687V143.262Z" fill="white"/>
<path d="M1 132.565L58.3062 165.421V133.711L95.1733 112.508" stroke="#1B4270" stroke-width="1.6438"/>
<path d="M1 174.589L58.3062 207.445V175.735L95.1733 154.532" stroke="#1B4270" stroke-width="1.6438"/>
<path d="M58.3065 176.117L1.38232 143.644" stroke="#1B4270" stroke-width="1.6438"/>
<path d="M19.7202 170.005L35.1929 178.601L49.4239 186.719" stroke="#1D9CE3" stroke-width="1.6438" stroke-linecap="round"/>
<path d="M14.7534 167.413C14.7644 168.814 13.7471 169.57 12.4811 169.102C11.2152 168.635 10.1801 167.12 10.169 165.72C10.158 164.319 11.1753 163.563 12.4412 164.03C13.7072 164.498 14.7423 166.012 14.7534 167.413Z" fill="#1D9CE3"/>
<path d="M19.7202 127.216L35.1929 135.812L49.4239 143.931" stroke="#1D9CE3" stroke-width="1.6438" stroke-linecap="round"/>
<path d="M14.7534 124.624C14.7644 126.024 13.7471 126.781 12.4811 126.313C11.2152 125.846 10.1801 124.331 10.169 122.931C10.158 121.53 11.1753 120.774 12.4412 121.241C13.7072 121.709 14.7423 123.223 14.7534 124.624Z" fill="#1D9CE3"/>
<path fill-rule="evenodd" clip-rule="evenodd" d="M244.765 81.4448L306.293 116.58V142.702L244.765 107.47V81.4448Z" fill="white"/>
<path d="M275.389 62.1084L197.346 108.446" stroke="#1B4270" stroke-width="1.6438"/>
<path d="M329.334 156.518L324.46 153.694M315.333 148.405L244.764 107.515V81.3926L273.985 97.8998" stroke="#1B4270" stroke-width="1.6438"/>
<path d="M266.853 106.821L281.994 115.458" stroke="#1D9CE3" stroke-width="1.6438" stroke-linecap="round"/>
<path d="M259.536 102.437C259.548 103.927 258.466 104.732 257.119 104.234C255.772 103.737 254.671 102.126 254.659 100.636C254.647 99.1454 255.729 98.3406 257.076 98.8381C258.423 99.3355 259.525 100.947 259.536 102.437Z" fill="#1D9CE3"/>
<path fill-rule="evenodd" clip-rule="evenodd" d="M254.916 49.25L278.439 62.4237V87.4587L254.916 74.2486V49.25Z" fill="white"/>
<path d="M297.354 98.2566L295 96.9249M287.144 92.4807L254.916 74.2486V56.2044M254.916 47.9301V44.8413" stroke="#1B4270" stroke-width="1.6438"/>
<path d="M268.89 69.7235C268.901 71.2137 267.819 72.0185 266.472 71.521C265.125 71.0236 264.024 69.4123 264.012 67.9221C264.001 66.432 265.083 65.6272 266.43 66.1247C267.777 66.6221 268.878 68.2334 268.89 69.7235Z" fill="#1D9CE3"/>
<path d="M232.354 126.305C233.335 129.309 234.986 132.091 237.094 134.293C239.202 136.494 241.669 138.013 244.178 138.655L244.823 138.812C246.823 139.296 248.816 140.244 250.688 141.603C252.56 142.962 254.275 144.705 255.735 146.731C257.194 148.758 258.369 151.029 259.194 153.414C260.018 155.799 260.474 158.252 260.538 160.633C260.603 163.014 260.274 165.276 259.568 167.29C258.863 169.304 257.796 171.031 256.427 172.371C255.059 173.711 253.416 174.639 251.593 175.101C249.77 175.562 247.802 175.55 245.803 175.063L245.157 174.906C242.65 174.331 240.233 174.665 238.217 175.865C236.201 177.066 234.68 179.078 233.849 181.642C233.013 184.128 232.868 187.037 233.433 190.012C233.997 192.986 235.246 195.897 237.027 198.384L237.971 199.695C240.916 203.785 242.644 208.782 242.773 213.586C242.903 218.391 241.424 222.61 238.663 225.314C235.901 228.019 232.082 228.988 228.047 228.009C224.011 227.029 220.089 224.181 217.144 220.092L216.644 219.398C214.766 216.885 212.426 214.956 209.927 213.862C207.429 212.767 204.889 212.558 202.636 213.262C200.327 213.773 198.364 215.173 197.002 217.281C195.639 219.388 194.94 222.107 194.993 225.086L195.013 225.855C195.079 228.236 194.749 230.498 194.044 232.512C193.339 234.526 192.272 236.253 190.903 237.593C189.535 238.933 187.892 239.861 186.069 240.323C184.246 240.785 182.278 240.772 180.279 240.285C178.279 239.801 176.286 238.853 174.414 237.494C172.542 236.135 170.827 234.393 169.367 232.366C167.908 230.339 166.733 228.069 165.908 225.683C165.084 223.298 164.628 220.845 164.564 218.465L164.544 217.696C164.435 214.703 163.578 211.607 162.083 208.805C160.588 206.004 158.524 203.627 156.156 201.98C153.853 200.346 151.357 199.474 148.973 199.472C146.59 199.47 144.424 200.338 142.741 201.969L141.856 202.836C139.094 205.541 135.275 206.51 131.24 205.531C127.204 204.551 123.282 201.703 120.337 197.613C117.392 193.523 115.664 188.526 115.534 183.722C115.405 178.917 116.883 174.699 119.645 171.994L120.114 171.535C121.794 169.787 122.87 167.324 123.203 164.466C123.536 161.608 123.109 158.487 121.979 155.508C120.997 152.503 119.346 149.721 117.238 147.52C115.131 145.319 112.664 143.799 110.155 143.157L109.509 143.001C107.509 142.517 105.517 141.568 103.644 140.209C101.772 138.85 100.057 137.108 98.5978 135.081C97.1384 133.055 95.963 130.784 95.1389 128.398C94.3148 126.013 93.858 123.56 93.7948 121.18C93.7294 118.799 94.0588 116.537 94.764 114.523C95.4693 112.508 96.5367 110.782 97.9052 109.442C99.2737 108.102 100.916 107.174 102.739 106.712C104.562 106.25 106.53 106.263 108.53 106.749L109.175 106.906C111.682 107.482 114.1 107.148 116.115 105.947C118.131 104.747 119.653 102.735 120.484 100.17L120.9 99.7623C121.736 97.2767 121.881 94.3675 121.316 91.3929C120.752 88.4182 119.502 85.5079 117.722 83.0202L116.778 81.7095C113.833 77.6195 112.105 72.6227 111.976 67.8181C111.846 63.0136 113.325 58.7949 116.086 56.0902C118.848 53.3854 122.667 52.4162 126.702 53.3957C130.738 54.3752 134.66 57.2232 137.605 61.3131L138.105 62.007C139.898 64.4816 142.14 66.4196 144.555 67.5822C146.97 68.7449 149.452 69.0816 151.696 68.5509C154.006 68.0393 155.968 66.6394 157.331 64.5318C158.693 62.4241 159.393 59.7054 159.34 56.726L159.319 55.9575C159.254 53.5765 159.583 51.3143 160.288 49.3002C160.994 47.2862 162.061 45.5596 163.429 44.2194C164.798 42.8792 166.441 41.9516 168.264 41.4897C170.087 41.0277 172.054 41.0404 174.054 41.527C176.054 42.0111 178.046 42.9596 179.919 44.3185C181.791 45.6774 183.506 47.4199 184.965 49.4465C186.425 51.4731 187.6 53.7439 188.424 56.1292C189.248 58.5145 189.705 60.9675 189.768 63.3479L189.789 64.1165C189.897 67.1092 190.754 70.2059 192.249 73.007C193.744 75.8082 195.809 78.1855 198.177 79.8324L198.621 80.4492C200.923 82.0834 203.42 82.9551 205.803 82.9571C208.187 82.959 210.353 82.0911 212.036 80.4602L212.921 79.5933C215.683 76.8886 219.501 75.9194 223.537 76.8989C227.572 77.8783 231.494 80.7263 234.44 84.8162C237.385 88.9062 239.112 93.903 239.242 98.7076C239.372 103.512 237.893 107.731 235.132 110.436L234.663 110.894C232.995 112.545 231.887 114.883 231.477 117.621C231.067 120.359 231.371 123.378 232.354 126.305V126.305Z" stroke="#1B4270" stroke-width="2" stroke-linecap="round" stroke-linejoin="round"/>
<path d="M49.6802 244.125C49.6802 235.943 55.5119 232.475 62.7056 236.379C66.1051 238.224 69.2004 241.385 71.5198 245.07M94.5029 230.978C96.8829 232.269 99.1785 233.926 101.338 235.862M136.261 291.114C136.261 282.932 130.429 273.134 123.235 269.23C121.148 268.097 119.176 267.585 117.427 267.628C117.381 266.891 117.31 266.148 117.215 265.401C116.052 256.259 111.28 246.516 104.734 239.257" stroke="#1B4270" stroke-width="1.6438"/>
<path fill-rule="evenodd" clip-rule="evenodd" d="M52.4706 271.083C45.2769 267.179 39.4453 257.381 39.4453 249.199C39.4453 241.017 45.277 237.549 52.4707 241.453C55.8701 243.298 58.9653 246.459 61.2847 250.144C61.2828 250.003 61.2818 249.862 61.2818 249.721C61.2818 235.282 71.573 229.162 84.2678 236.052C96.3904 242.631 106.321 258.694 107.192 272.702C108.941 272.659 110.913 273.171 113 274.304C120.194 278.208 126.026 288.006 126.026 296.188C126.026 304.37 120.194 307.838 113 303.934V303.934L84.2678 288.341L52.4706 271.084V271.083Z" fill="white"/>
<path d="M106.421 273.39L106.372 272.599C105.947 265.758 103.302 258.37 99.2521 251.872C95.2014 245.373 89.7841 239.827 83.8761 236.62C77.687 233.261 72.2637 233.164 68.4347 235.441C64.6057 237.718 62.104 242.528 62.104 249.567C62.104 249.704 62.105 249.841 62.1069 249.979L62.1471 252.902L60.5895 250.428C58.326 246.832 55.3262 243.784 52.0787 242.021C48.6401 240.155 45.707 240.141 43.6805 241.346C41.654 242.551 40.2672 245.134 40.2672 249.045C40.2672 252.954 41.6657 257.305 43.9666 261.171C46.2675 265.037 49.4256 268.341 52.8628 270.207L52.8637 270.207C52.8602 270.205 52.8559 270.203 52.8509 270.201L52.4707 270.929L52.9401 270.255L52.9516 270.263M106.421 273.39L52.9516 270.263M106.421 273.39L107.213 273.37C108.786 273.331 110.617 273.792 112.609 274.872C116.046 276.738 119.204 280.042 121.505 283.908C123.806 287.774 125.204 292.125 125.204 296.034C125.204 299.945 123.817 302.528 121.791 303.733C119.764 304.938 116.831 304.924 113.393 303.058L84.6888 287.48L84.688 287.479L84.6602 287.464L84.6601 287.464L84.6322 287.449L84.6315 287.449L52.8697 270.211L106.421 273.39ZM52.9516 270.263C52.9577 270.267 52.9675 270.274 52.9792 270.283M52.9516 270.263L52.9536 270.264C52.9577 270.267 52.9672 270.274 52.9792 270.283M52.9792 270.283C52.9806 270.285 52.982 270.286 52.9835 270.287C52.9904 270.292 53.0032 270.303 53.0188 270.317C53.0267 270.324 53.0383 270.334 53.0518 270.348C53.0639 270.36 53.0859 270.383 53.1107 270.414C53.1233 270.429 53.1406 270.452 53.1593 270.48M52.9792 270.283C52.9827 270.286 52.9869 270.29 52.9916 270.293C52.9949 270.296 52.9985 270.299 53.0023 270.302C53.011 270.31 53.0239 270.321 53.0388 270.335C53.0523 270.348 53.0769 270.372 53.1045 270.406C53.1187 270.423 53.1383 270.448 53.1593 270.48M53.1593 270.48C53.1594 270.481 53.1596 270.481 53.1598 270.481C53.1621 270.485 53.1645 270.489 53.1671 270.493C53.1644 270.488 53.1617 270.484 53.1593 270.48ZM61.285 249.99L60.4632 250.001C60.4612 249.856 60.4602 249.712 60.4602 249.567C60.4602 249.297 60.4637 249.029 60.4708 248.764C60.6559 249.028 60.837 249.296 61.014 249.567C61.1055 249.707 61.1958 249.848 61.285 249.99ZM61.285 249.99L61.9567 249.567L61.9806 249.552C61.7608 249.203 61.534 248.858 61.3006 248.518C61.2883 248.863 61.2821 249.212 61.2821 249.567C61.2821 249.708 61.2831 249.849 61.285 249.99ZM53.2923 270.952C53.2927 270.936 53.2927 270.922 53.2923 270.908C53.2927 270.922 53.2927 270.936 53.2923 270.952Z" stroke="#1B4270" stroke-width="1.6438"/>
<path fill-rule="evenodd" clip-rule="evenodd" d="M225.095 141.928C222.988 139.727 221.337 136.945 220.355 133.94C219.373 131.013 219.068 127.995 219.478 125.257C219.889 122.519 220.996 120.181 222.664 118.53L223.133 118.071C225.895 115.367 227.373 111.148 227.244 106.343C227.114 101.539 225.386 96.5419 222.441 92.452C219.496 88.362 215.574 85.5141 211.538 84.5346C207.503 83.5551 203.684 84.5243 200.922 87.229L200.037 88.0959C198.354 89.7268 196.188 90.5947 193.805 90.5928C191.421 90.5908 188.925 89.7191 186.622 88.085L186.178 87.4681C183.81 85.8213 181.746 83.444 180.251 80.6428C178.756 77.8416 177.899 74.745 177.79 71.7522L177.77 70.9836C177.706 68.6032 177.25 66.1503 176.425 63.7649C175.601 61.3796 174.426 59.1088 172.967 57.0822C171.507 55.0556 169.792 53.3131 167.92 51.9542C166.048 50.5953 164.055 49.6468 162.055 49.1628C160.056 48.6761 158.088 48.6634 156.265 49.1254C154.442 49.5874 152.799 50.515 151.431 51.8552C150.062 53.1954 148.995 54.9219 148.29 56.936C147.584 58.9501 147.255 61.2123 147.32 63.5932L147.341 64.3618C147.394 67.3411 146.694 70.0599 145.332 72.1675C143.97 74.2752 142.007 75.675 139.697 76.1866C137.454 76.7173 134.972 76.3807 132.557 75.218C130.142 74.0553 127.9 72.1174 126.106 69.6428L125.606 68.9488C122.661 64.8589 118.739 62.0109 114.704 61.0314C110.668 60.0519 106.849 61.0212 104.088 63.7259C101.326 66.4306 99.8473 70.6493 99.9771 75.4538C100.107 80.2584 101.834 85.2552 104.78 89.3452L105.724 90.656C107.504 93.1437 108.753 96.054 109.318 99.0286C109.882 102.003 109.738 104.912 108.902 107.398L108.485 107.806C107.654 110.37 106.132 112.383 104.117 113.583C102.101 114.784 99.6839 115.118 97.1767 114.542L96.5311 114.385C94.5314 113.898 92.5638 113.886 90.7408 114.348C88.9178 114.81 87.2751 115.737 85.9066 117.078C84.5381 118.418 83.4707 120.144 82.7654 122.158C82.0601 124.172 81.7308 126.435 81.7962 128.816C81.8594 131.196 82.3162 133.649 83.1403 136.034C83.9644 138.42 85.1398 140.69 86.5992 142.717C88.0587 144.744 89.7735 146.486 91.6457 147.845C93.518 149.204 95.5108 150.152 97.5104 150.636L98.156 150.793C100.665 151.435 103.132 152.954 105.24 155.156C107.347 157.357 108.998 160.139 109.98 163.144C111.111 166.122 111.537 169.244 111.205 172.102C110.872 174.96 109.795 177.423 108.115 179.171L107.646 179.63C104.885 182.334 103.406 186.553 103.536 191.358C103.666 196.162 105.393 201.159 108.339 205.249C111.284 209.339 115.206 212.187 119.241 213.166C123.277 214.146 127.096 213.176 129.857 210.472L130.742 209.605C132.425 207.974 134.591 207.106 136.975 207.108C139.358 207.11 141.855 207.982 144.157 209.616C146.525 211.263 148.59 213.64 150.085 216.441C151.58 219.242 152.437 222.339 152.545 225.332L152.566 226.1C152.629 228.481 153.086 230.934 153.91 233.319C154.734 235.704 155.909 237.975 157.369 240.002C158.828 242.028 160.543 243.771 162.415 245.13C164.287 246.489 166.28 247.437 168.28 247.921C170.28 248.408 172.247 248.421 174.07 247.959C175.893 247.497 177.536 246.569 178.904 245.229C180.273 243.889 181.34 242.162 182.046 240.148C182.751 238.134 183.08 235.872 183.015 233.491L182.994 232.722C182.941 229.743 183.641 227.024 185.003 224.916C186.366 222.809 188.328 221.409 190.638 220.897C192.89 220.194 195.431 220.403 197.929 221.497C200.427 222.592 202.767 224.521 204.646 227.033L205.145 227.727C208.091 231.817 212.012 234.665 216.048 235.645C220.084 236.624 223.902 235.655 226.664 232.95C229.426 230.245 230.904 226.027 230.775 221.222C230.645 216.418 228.917 211.421 225.972 207.331L225.028 206.02C223.248 203.532 221.999 200.622 221.434 197.647C220.869 194.673 221.014 191.764 221.85 189.278C222.681 186.714 224.203 184.701 226.218 183.501C228.234 182.3 230.651 181.966 233.159 182.542L233.804 182.699C235.804 183.186 237.771 183.198 239.594 182.736C241.417 182.274 243.06 181.347 244.429 180.006C245.797 178.666 246.865 176.94 247.57 174.926C248.275 172.912 248.604 170.649 248.539 168.268C248.476 165.888 248.019 163.435 247.195 161.05C246.371 158.664 245.195 156.394 243.736 154.367C242.277 152.34 240.562 150.598 238.69 149.239C236.817 147.88 234.824 146.932 232.825 146.448L232.179 146.291C229.67 145.649 227.203 144.13 225.095 141.928ZM180.787 133.245C189.987 146.02 190.452 163.225 181.825 171.674C173.199 180.122 158.747 176.614 149.547 163.839C140.347 151.064 139.882 133.859 148.509 125.41C157.136 116.962 171.587 120.469 180.787 133.245Z" fill="#C2E9FF"/>
<path d="M181.826 171.674C190.452 163.225 189.988 146.02 180.788 133.245C171.587 120.469 157.136 116.962 148.509 125.41C139.883 133.859 140.348 151.064 149.548 163.839C158.748 176.614 173.199 180.122 181.826 171.674Z" stroke="#1B4270" stroke-width="2" stroke-linecap="round" stroke-linejoin="round"/>
<path d="M187.831 180.014C199.568 168.52 198.936 145.111 186.419 127.73C173.902 110.349 154.24 105.577 142.503 117.071C130.767 128.566 131.399 151.974 143.916 169.355C156.433 186.736 176.094 191.509 187.831 180.014Z" stroke="#1B4270" stroke-width="2" stroke-linecap="round" stroke-linejoin="round"/>
<path d="M220.355 133.94C221.336 136.945 222.987 139.727 225.095 141.928C227.203 144.13 229.67 145.649 232.179 146.291L232.824 146.448C234.824 146.932 236.817 147.88 238.689 149.239C240.561 150.598 242.276 152.34 243.736 154.367C245.195 156.394 246.37 158.664 247.195 161.05C248.019 163.435 248.475 165.888 248.539 168.268C248.604 170.649 248.275 172.912 247.569 174.926C246.864 176.94 245.797 178.666 244.428 180.006C243.06 181.347 241.417 182.274 239.594 182.736C237.771 183.198 235.803 183.186 233.804 182.699L233.158 182.542C230.651 181.966 228.234 182.3 226.218 183.501C224.202 184.701 222.681 186.714 221.85 189.278C221.014 191.764 220.869 194.673 221.434 197.647C221.998 200.622 223.247 203.532 225.028 206.02L225.972 207.331C228.917 211.421 230.644 216.418 230.774 221.222C230.904 226.027 229.425 230.245 226.664 232.95C223.902 235.655 220.083 236.624 216.048 235.645C212.012 234.665 208.09 231.817 205.145 227.727L204.645 227.033C202.767 224.521 200.427 222.592 197.928 221.497C195.43 220.403 192.89 220.194 190.637 220.897C188.328 221.409 186.365 222.809 185.003 224.916C183.64 227.024 182.941 229.743 182.994 232.722L183.014 233.491C183.08 235.872 182.75 238.134 182.045 240.148C181.34 242.162 180.272 243.889 178.904 245.229C177.536 246.569 175.893 247.497 174.07 247.959C172.247 248.421 170.279 248.408 168.28 247.921C166.28 247.437 164.287 246.489 162.415 245.13C160.543 243.771 158.828 242.028 157.368 240.002C155.909 237.975 154.733 235.704 153.909 233.319C153.085 230.934 152.628 228.481 152.565 226.1L152.545 225.332C152.436 222.339 151.579 219.242 150.084 216.441C148.589 213.64 146.525 211.263 144.157 209.616C141.854 207.982 139.358 207.11 136.974 207.108C134.591 207.106 132.425 207.974 130.742 209.605L129.857 210.472C127.095 213.177 123.276 214.146 119.241 213.166C115.205 212.187 111.283 209.339 108.338 205.249C105.393 201.159 103.665 196.162 103.535 191.358C103.406 186.553 104.884 182.334 107.646 179.63L108.115 179.171C109.795 177.423 110.871 174.96 111.204 172.102C111.537 169.244 111.11 166.122 109.98 163.144C108.998 160.139 107.347 157.357 105.239 155.156C103.132 152.954 100.665 151.435 98.1556 150.793L97.51 150.636C95.5104 150.152 93.5175 149.204 91.6453 147.845C89.7731 146.486 88.0582 144.744 86.5988 142.717C85.1394 140.69 83.964 138.42 83.1399 136.034C82.3157 133.649 81.859 131.196 81.7958 128.816C81.7304 126.435 82.0597 124.172 82.765 122.158C83.4703 120.144 84.5377 118.418 85.9062 117.078C87.2746 115.737 88.9173 114.81 90.7404 114.348C92.5634 113.886 94.531 113.898 96.5307 114.385L97.1762 114.542C99.6834 115.118 102.101 114.784 104.116 113.583C106.132 112.383 107.654 110.37 108.485 107.806L108.901 107.398C109.737 104.912 109.882 102.003 109.317 99.0286C108.753 96.054 107.503 93.1437 105.723 90.656L104.779 89.3452C101.834 85.2553 100.106 80.2584 99.9767 75.4538C99.8469 70.6493 101.325 66.4306 104.087 63.7259C106.849 61.0212 110.668 60.0519 114.703 61.0314C118.739 62.0109 122.661 64.8589 125.606 68.9488L126.106 69.6428C127.899 72.1174 130.141 74.0553 132.556 75.218C134.971 76.3807 137.453 76.7174 139.697 76.1866C142.007 75.675 143.969 74.2752 145.332 72.1675C146.694 70.0599 147.394 67.3411 147.341 64.3618L147.32 63.5932C147.255 61.2123 147.584 58.9501 148.289 56.936C148.995 54.9219 150.062 53.1954 151.43 51.8552C152.799 50.515 154.442 49.5874 156.265 49.1254C158.088 48.6634 160.055 48.6761 162.055 49.1628C164.054 49.6468 166.047 50.5954 167.92 51.9542C169.792 53.3131 171.507 55.0556 172.966 57.0822C174.426 59.1088 175.601 61.3797 176.425 63.765C177.249 66.1503 177.706 68.6033 177.769 70.9837L177.79 71.7522C177.898 74.745 178.755 77.8416 180.25 80.6428C181.745 83.444 183.81 85.8213 186.178 87.4681L186.622 88.085C188.924 89.7192 191.421 90.5909 193.804 90.5928C196.188 90.5947 198.354 89.7268 200.037 88.0959L200.922 87.2291C203.684 84.5243 207.502 83.5551 211.538 84.5346C215.573 85.5141 219.495 88.3621 222.441 92.452C225.386 96.5419 227.113 101.539 227.243 106.343C227.373 111.148 225.894 115.367 223.133 118.071L222.664 118.53C220.996 120.181 219.888 122.519 219.478 125.257C219.068 127.995 219.372 131.013 220.355 133.94V133.94Z" stroke="#1B4270" stroke-width="2" stroke-linecap="round" stroke-linejoin="round"/>
</svg>
