<?xml version="1.0" encoding="utf-8"?>
<!-- Generator: Adobe Illustrator 23.1.0, SVG Export Plug-In . SVG Version: 6.00 Build 0)  -->
<svg version="1.1" id="Слой_1" xmlns="http://www.w3.org/2000/svg" xmlns:xlink="http://www.w3.org/1999/xlink" x="0px" y="0px"
	 viewBox="0 0 765.2 296" style="enable-background:new 0 0 765.2 296;" xml:space="preserve">
<style type="text/css">
	.st0{opacity:0.34;clip-path:url(#SVGID_2_);}
	.st1{fill:none;stroke:url(#SVGID_3_);stroke-miterlimit:10;}
	.st2{fill:none;stroke:url(#SVGID_4_);stroke-miterlimit:10;}
	.st3{fill:none;stroke:url(#SVGID_5_);stroke-miterlimit:10;}
	.st4{fill:none;stroke:url(#SVGID_6_);stroke-miterlimit:10;}
	.st5{fill:none;stroke:url(#SVGID_7_);stroke-miterlimit:10;}
	.st6{fill:none;stroke:url(#SVGID_8_);stroke-miterlimit:10;}
	.st7{fill:none;stroke:url(#SVGID_9_);stroke-miterlimit:10;}
	.st8{fill:none;stroke:url(#SVGID_10_);stroke-miterlimit:10;}
	.st9{fill:none;stroke:url(#SVGID_11_);stroke-miterlimit:10;}
	.st10{fill:none;stroke:url(#SVGID_12_);stroke-miterlimit:10;}
	.st11{fill:none;stroke:url(#SVGID_13_);stroke-miterlimit:10;}
	.st12{fill:none;stroke:url(#SVGID_14_);stroke-miterlimit:10;}
	.st13{fill:none;stroke:url(#SVGID_15_);stroke-miterlimit:10;}
	.st14{fill:none;stroke:url(#SVGID_16_);stroke-miterlimit:10;}
	.st15{fill:none;stroke:url(#SVGID_17_);stroke-miterlimit:10;}
	.st16{fill:none;stroke:url(#SVGID_18_);stroke-miterlimit:10;}
	.st17{fill:none;stroke:url(#SVGID_19_);stroke-miterlimit:10;}
	.st18{fill:none;stroke:#1B4270;stroke-width:1.64;}
	.st19{fill-rule:evenodd;clip-rule:evenodd;fill:#FFFFFF;}
	.st20{fill-rule:evenodd;clip-rule:evenodd;fill:#1B4270;}
	.st21{fill:#C2E9FF;stroke:#1B4270;stroke-width:1.64;}
	.st22{fill:none;stroke:#1B4270;stroke-width:1.6;}
	.st23{fill:#FFFFFF;}
	.st24{fill:#1B4270;}
	.st25{fill:none;stroke:#1B4270;stroke-width:1.64;stroke-linecap:round;}
</style>
<g>
	<defs>
		<rect id="SVGID_1_" x="-406" y="16" width="1356" height="280"/>
	</defs>
	<clipPath id="SVGID_2_">
		<use xlink:href="#SVGID_1_"  style="overflow:visible;"/>
	</clipPath>
	<g class="st0">
		
			<linearGradient id="SVGID_3_" gradientUnits="userSpaceOnUse" x1="-145.8644" y1="447.9633" x2="4.2496" y2="-382.6657" gradientTransform="matrix(1 0 0 -1 0 295.89)">
			<stop  offset="0" style="stop-color:#8FD7FF;stop-opacity:0"/>
			<stop  offset="0.3946" style="stop-color:#3EB2F3"/>
			<stop  offset="1" style="stop-color:#95D9FF;stop-opacity:0"/>
		</linearGradient>
		<path class="st1" d="M45.5,271.7c-67.7,38-142.3,66.7-210.9,103.1"/>
		
			<linearGradient id="SVGID_4_" gradientUnits="userSpaceOnUse" x1="-142.931" y1="439.6094" x2="10.891" y2="-411.5366" gradientTransform="matrix(1 0 0 -1 0 295.89)">
			<stop  offset="0" style="stop-color:#8FD7FF;stop-opacity:0"/>
			<stop  offset="0.3946" style="stop-color:#3EB2F3"/>
			<stop  offset="1" style="stop-color:#95D9FF;stop-opacity:0"/>
		</linearGradient>
		<path class="st2" d="M-206.4,427.9c84.5-55.7,185.4-90.1,274.8-140.2c10.2-5.7,20.3-11.7,30.2-17.9"/>
		
			<linearGradient id="SVGID_5_" gradientUnits="userSpaceOnUse" x1="-37.2937" y1="449.9653" x2="120.2653" y2="-421.8546" gradientTransform="matrix(1 0 0 -1 0 295.89)">
			<stop  offset="0" style="stop-color:#8FD7FF;stop-opacity:0"/>
			<stop  offset="0.3946" style="stop-color:#3EB2F3"/>
			<stop  offset="1" style="stop-color:#95D9FF;stop-opacity:0"/>
		</linearGradient>
		<path class="st3" d="M324.3,84.4c-54.1,93.4-138.8,166.5-233,219.3C-18.8,365.5-146,403.9-240.4,485.1"/>
		
			<linearGradient id="SVGID_6_" gradientUnits="userSpaceOnUse" x1="-110.311" y1="427.8501" x2="50.954" y2="-464.4769" gradientTransform="matrix(1 0 0 -1 0 295.89)">
			<stop  offset="0" style="stop-color:#8FD7FF;stop-opacity:0"/>
			<stop  offset="0.3946" style="stop-color:#3EB2F3"/>
			<stop  offset="1" style="stop-color:#95D9FF;stop-opacity:0"/>
		</linearGradient>
		<path class="st4" d="M-357.5,834.2c-11.3-106,25-216.2,97-294.9c39.8-43.4,87.9-76,139.5-104.1c76-41.4,159.5-73,235.2-115.5
			c27-15.1,53.1-31.9,78.1-50.2c64.3-47.3,120.5-105.4,160.4-174.3"/>
		
			<linearGradient id="SVGID_7_" gradientUnits="userSpaceOnUse" x1="-68.6623" y1="426.5618" x2="96.3186" y2="-486.3261" gradientTransform="matrix(1 0 0 -1 0 295.89)">
			<stop  offset="0" style="stop-color:#8FD7FF;stop-opacity:0"/>
			<stop  offset="0.3946" style="stop-color:#3EB2F3"/>
			<stop  offset="1" style="stop-color:#95D9FF;stop-opacity:0"/>
		</linearGradient>
		<path class="st5" d="M-345.4,862.1c-11.5-108.5,25.6-221.2,99.3-301.6c50-54.6,112.9-92.4,179.4-125.5
			c67.4-33.6,138.5-62.4,203.9-99.1c98.6-55.3,187.3-131.8,243.9-229.7c14.1-24.3,26-50,35.5-76.6"/>
		
			<linearGradient id="SVGID_8_" gradientUnits="userSpaceOnUse" x1="-40.2298" y1="422.8264" x2="128.4612" y2="-510.5916" gradientTransform="matrix(1 0 0 -1 0 295.89)">
			<stop  offset="0" style="stop-color:#8FD7FF;stop-opacity:0"/>
			<stop  offset="0.3946" style="stop-color:#3EB2F3"/>
			<stop  offset="1" style="stop-color:#95D9FF;stop-opacity:0"/>
		</linearGradient>
		<path class="st6" d="M-333.4,889.9c-11.8-110.9,26.2-226.2,101.5-308.4c62.5-68.2,144.6-110.8,229.2-150.4
			c54.7-25.6,110.5-50,162.7-79.3c19.8-11.1,39.1-23,58-35.8c77.2-52.3,144.9-118.6,191.5-199.1c21.9-37.8,38.7-79,49.4-121.5"/>
		
			<linearGradient id="SVGID_9_" gradientUnits="userSpaceOnUse" x1="-16.8051" y1="418.2213" x2="155.6029" y2="-535.7587" gradientTransform="matrix(1 0 0 -1 0 295.89)">
			<stop  offset="0" style="stop-color:#8FD7FF;stop-opacity:0"/>
			<stop  offset="0.3946" style="stop-color:#3EB2F3"/>
			<stop  offset="1" style="stop-color:#95D9FF;stop-opacity:0"/>
		</linearGradient>
		<path class="st7" d="M-321.3,917.8c-12-113.3,26.7-231.1,103.7-315.2c71.5-78.1,168.2-123.3,265.5-168.2
			c45.8-21.1,91.6-42.1,135.1-66.5c9.2-5.1,18.3-10.5,27.2-15.9c92-56.2,173.8-131,227.7-224.1c26.7-46.1,46-97,56.1-149.4"/>
		
			<linearGradient id="SVGID_10_" gradientUnits="userSpaceOnUse" x1="3.3323" y1="413.0225" x2="179.4553" y2="-561.5205" gradientTransform="matrix(1 0 0 -1 0 295.89)">
			<stop  offset="0" style="stop-color:#8FD7FF;stop-opacity:0"/>
			<stop  offset="0.3946" style="stop-color:#3EB2F3"/>
			<stop  offset="1" style="stop-color:#95D9FF;stop-opacity:0"/>
		</linearGradient>
		<path class="st8" d="M-309.3,945.7c-12.3-115.7,27.3-236.1,106-322c81.2-88.6,194-135.7,304.2-187.1c35.7-16.6,71-33.7,105-52.7
			c15.7-8.8,31.1-18.1,46.3-27.9c65.2-42.2,124.6-93.8,172-154.8c15.4-19.8,29.6-40.7,42.2-62.5c6-10.3,11.6-20.8,16.8-31.5
			c3.4-7.1,6.7-14.2,9.8-21.4c14.9-34.7,25.9-71.2,32.3-108.2"/>
		
			<linearGradient id="SVGID_11_" gradientUnits="userSpaceOnUse" x1="35.2329" y1="409.9914" x2="215.0872" y2="-585.1918" gradientTransform="matrix(1 0 0 -1 0 295.89)">
			<stop  offset="0" style="stop-color:#8FD7FF;stop-opacity:0"/>
			<stop  offset="0.3946" style="stop-color:#3EB2F3"/>
			<stop  offset="1" style="stop-color:#95D9FF;stop-opacity:0"/>
		</linearGradient>
		<path class="st9" d="M-297.2,973.6c-12.5-118.2,27.9-241.1,108.2-328.7c92.6-101.1,225.5-149.4,349.9-209.7
			c23-11.2,45.8-22.8,67.9-35.2c15.4-8.6,30.6-17.8,45.5-27.4c89-57.3,167.6-131.7,220.4-223C556.4,43,580.4-88.1,545.3-206.2"/>
		
			<linearGradient id="SVGID_12_" gradientUnits="userSpaceOnUse" x1="39.754" y1="401.9152" x2="223.31" y2="-613.7518" gradientTransform="matrix(1 0 0 -1 0 295.89)">
			<stop  offset="0" style="stop-color:#8FD7FF;stop-opacity:0"/>
			<stop  offset="0.3946" style="stop-color:#3EB2F3"/>
			<stop  offset="1" style="stop-color:#95D9FF;stop-opacity:0"/>
		</linearGradient>
		<path class="st10" d="M-285.2,1001.5C-298,880.9-256.7,755.4-174.7,666C-72.5,554.3,78,505.8,213.5,436.5
			c12.9-6.6,25.6-13.4,38.2-20.4c55.7-31.2,108.6-68.6,155.4-112c9.5-8.8,18.7-17.9,27.7-27.2c33.9-35.2,63.9-74,88.4-116.4
			c8-13.8,15.4-28.1,22.1-42.6 M545.2,117.9c2.6-5.6,5-11.2,7.4-16.8 M545.2,117.9l7.4-16.8 M552.6,101.1
			C566.6,67.8,577.1,33,583.6-2.4"/>
		
			<linearGradient id="SVGID_13_" gradientUnits="userSpaceOnUse" x1="61.5453" y1="397.0028" x2="248.8154" y2="-639.2151" gradientTransform="matrix(1 0 0 -1 0 295.89)">
			<stop  offset="0" style="stop-color:#8FD7FF;stop-opacity:0"/>
			<stop  offset="0.3946" style="stop-color:#3EB2F3"/>
			<stop  offset="1" style="stop-color:#95D9FF;stop-opacity:0"/>
		</linearGradient>
		<path class="st11" d="M-273.2,1029.4c-13-123.1,29-251.1,112.7-342.4c114.2-124.7,287.6-172.2,435-254.9
			c47.5-26.7,93-57.6,134.5-93c14.3-12.2,28.2-24.9,41.5-38.1c39-38.7,73.3-81.9,100.9-129.6c32.9-56.8,55.5-120.4,64.9-185.4"/>
		
			<linearGradient id="SVGID_14_" gradientUnits="userSpaceOnUse" x1="76.6519" y1="390.9166" x2="267.6349" y2="-665.8525" gradientTransform="matrix(1 0 0 -1 0 295.89)">
			<stop  offset="0" style="stop-color:#8FD7FF;stop-opacity:0"/>
			<stop  offset="0.3946" style="stop-color:#3EB2F3"/>
			<stop  offset="1" style="stop-color:#95D9FF;stop-opacity:0"/>
		</linearGradient>
		<path class="st12" d="M-261.1,1057.3c-13.3-125.6,29.6-256.1,114.9-349.2c116.5-127.2,293.3-175.6,443.7-260
			c49.3-27.7,96.5-59.9,139.5-96.8c32.4-27.8,62.5-58.2,89.2-91.3c12.6-15.6,24.5-31.7,35.5-48.5c6.3-9.6,12.4-19.3,18.1-29.3
			c29.9-51.7,51.5-108.9,62.6-167.7"/>
		
			<linearGradient id="SVGID_15_" gradientUnits="userSpaceOnUse" x1="110.9029" y1="388.2894" x2="305.6197" y2="-689.1343" gradientTransform="matrix(1 0 0 -1 0 295.89)">
			<stop  offset="0" style="stop-color:#8FD7FF;stop-opacity:0"/>
			<stop  offset="0.3946" style="stop-color:#3EB2F3"/>
			<stop  offset="1" style="stop-color:#95D9FF;stop-opacity:0"/>
		</linearGradient>
		<path class="st13" d="M-249.1,1085.2c-13.6-128,30.2-261,117.1-356c118.8-129.6,299-179,452.3-265.1c69-38.7,134-86.3,189.3-142.7
			c11.3-11.5,22.2-23.3,32.6-35.6c24.7-28.9,46.9-59.8,66-92.8c66.8-115.5,92.8-257.5,54.7-385.3"/>
		
			<linearGradient id="SVGID_16_" gradientUnits="userSpaceOnUse" x1="379.3974" y1="427.9179" x2="577.8135" y2="-669.976" gradientTransform="matrix(1 0 0 -1 0 295.89)">
			<stop  offset="0" style="stop-color:#8FD7FF;stop-opacity:0"/>
			<stop  offset="0.3946" style="stop-color:#3EB2F3"/>
			<stop  offset="1" style="stop-color:#95D9FF;stop-opacity:0"/>
		</linearGradient>
		<path class="st14" d="M636.8,204.1c-68.1,117.7-174.8,209.7-293.4,276.2c-15,8.4-30.3,16.5-45.8,24.4"/>
		
			<linearGradient id="SVGID_17_" gradientUnits="userSpaceOnUse" x1="427.7147" y1="427.8119" x2="629.8467" y2="-690.6426" gradientTransform="matrix(1 0 0 -1 0 295.89)">
			<stop  offset="0" style="stop-color:#8FD7FF;stop-opacity:0"/>
			<stop  offset="0.3946" style="stop-color:#3EB2F3"/>
			<stop  offset="1" style="stop-color:#95D9FF;stop-opacity:0"/>
		</linearGradient>
		<path class="st15" d="M366.3,496.3c120.8-67.7,229.5-161.5,298.9-281.4"/>
		
			<linearGradient id="SVGID_18_" gradientUnits="userSpaceOnUse" x1="558.4746" y1="442.6479" x2="764.3226" y2="-696.3744" gradientTransform="matrix(1 0 0 -1 0 295.89)">
			<stop  offset="0" style="stop-color:#8FD7FF;stop-opacity:0"/>
			<stop  offset="0.3946" style="stop-color:#3EB2F3"/>
			<stop  offset="1" style="stop-color:#95D9FF;stop-opacity:0"/>
		</linearGradient>
		<path class="st16" d="M751.4-181.6c40.3,135.2,12.8,285.3-57.9,407.4C638.1,321.6,558,401,466.6,464.1"/>
		
			<linearGradient id="SVGID_19_" gradientUnits="userSpaceOnUse" x1="550.4683" y1="432.3074" x2="760.0333" y2="-727.272" gradientTransform="matrix(1 0 0 -1 0 295.89)">
			<stop  offset="0" style="stop-color:#8FD7FF;stop-opacity:0"/>
			<stop  offset="0.3946" style="stop-color:#3EB2F3"/>
			<stop  offset="1" style="stop-color:#95D9FF;stop-opacity:0"/>
		</linearGradient>
		<path class="st17" d="M721.9,236.7c-44.2,76.4-103.9,142.6-172.3,198.6"/>
	</g>
</g>
<path class="st18" d="M438.2,67.2c0-17,12.1-24.2,27-16.1c7.1,3.8,13.5,10.4,18.3,18 M531.3,39.9c4.9,2.7,9.7,6.1,14.2,10.1
	 M617.9,164.7c0-17-12.1-37.3-27-45.4c-4.3-2.4-8.4-3.4-12.1-3.3c-0.1-1.5-0.2-3.1-0.4-4.6c-2.4-19-12.3-39.2-25.9-54.3"/>
<path class="st19" d="M569.6,191.3l-59.3-32.2c-0.1-0.1-0.2-0.1-0.3-0.2c-0.1-0.1-0.2-0.1-0.3-0.2L444,123.2v0c0,0,0,0,0,0
	c-14.9-8.1-27-28.4-27-45.4c0-17,12.1-24.2,27-16.1c7.1,3.8,13.5,10.4,18.3,18c0-0.3,0-0.6,0-0.9c0-30,21.4-42.7,47.7-28.4
	c25.2,13.7,45.8,47,47.6,76.1c3.6-0.1,7.7,1,12.1,3.3c14.9,8.1,27,28.4,27,45.4C596.7,192.2,584.6,199.4,569.6,191.3L569.6,191.3
	L569.6,191.3z"/>
<path class="st18" d="M556.8,127l0-0.8c-0.9-14.4-6.4-29.8-14.9-43.4c-8.5-13.6-19.8-25.2-32.2-32c-13-7.1-24.6-7.4-32.9-2.4
	c-8.3,4.9-13.6,15.3-13.6,30.1c0,0.3,0,0.6,0,0.9l0,2.9l-1.6-2.5c-4.8-7.6-11.1-14-18-17.8c-7.3-4-13.7-4.1-18.3-1.4
	c-4.6,2.7-7.5,8.4-7.5,16.7c0,8.3,3,17.5,7.8,25.6c4.8,8.1,11.5,15.1,18.8,19.1L556.8,127z M556.8,127l0.8,0 M556.8,127l0.8,0
	 M557.6,127c3.5-0.1,7.4,0.9,11.6,3.2c7.3,4,14,11,18.8,19.1c4.8,8.1,7.8,17.3,7.8,25.6c0,8.3-3,14-7.5,16.7s-11,2.6-18.3-1.4
	L510.5,158v0l-0.1,0l0,0l-0.1,0l0,0 M557.6,127l-47.3,30.9 M510.4,157.9l-65.9-35.8L510.4,157.9z M444.4,122.1
	C444.4,122.1,444.4,122.1,444.4,122.1C444.4,122.1,444.4,122.1,444.4,122.1C444.4,122.1,444.4,122.1,444.4,122.1
	C444.3,122.1,444.3,122.1,444.4,122.1c-0.1,0-0.1,0-0.1,0c0,0,0,0,0,0c0,0,0,0-0.1,0c0,0-0.1,0-0.1,0c0,0,0,0,0,0c0,0,0.1,0,0.1,0
	c0,0,0,0,0.1,0c0,0,0.1,0,0.1,0C444.3,122.1,444.3,122.1,444.4,122.1C444.4,122.1,444.4,122.1,444.4,122.1
	C444.4,122.1,444.4,122.1,444.4,122.1z"/>
<path class="st20" d="M234.4,172.3v26.5c0,5.2,3.3,10.5,8.3,13.2l82.2,43.9c7.6,4.1,15.4,0,15.4-8.1v-76.6c0-5.4-3.5-10.8-8.6-13.4
	l-55.3-27.6v1.7l54.9,27.4c4.4,2.2,7.5,6.9,7.5,11.5v76.6c0,7-6.7,10.5-13.3,7l-82.2-43.9c-4.3-2.3-7.1-6.9-7.1-11.4v-26.9H234.4z"
	/>
<path class="st21" d="M215.8,134.9c0-7.4,7-11.2,14-7.7l82.2,41c4.8,2.4,8,7.5,8,12.4v76.6c0,7.5-7.2,11.3-14.4,7.5l-82.2-43.9
	c-4.6-2.5-7.7-7.4-7.7-12.3V134.9z"/>
<path class="st22" d="M230.3,160.4l5.3-1.9c3.1-1.1,7.4,0.9,10.5,5l0,0c3.1,4.1,7.4,6.1,10.5,5l0,0c3.1-1.1,7.4,0.9,10.5,5l0,0
	c3.1,4.1,7.4,6.1,10.5,5l0,0c3.1-1.1,7.4,0.9,10.5,5l0,0c3.1,4.1,7.4,6.1,10.5,5l2.8-1"/>
<path class="st22" d="M230.3,174l5.3-1.9c3.1-1.1,7.4,0.9,10.5,5l0,0c3.1,4.1,7.4,6.1,10.5,5l0,0c3.1-1.1,7.4,0.9,10.5,5l0,0
	c3.1,4.1,7.4,6.1,10.5,5l0,0c3.1-1.1,7.4,0.9,10.5,5l0,0c3.1,4.1,7.4,6.1,10.5,5l2.8-1"/>
<path class="st22" d="M230.3,187.5l5.3-1.9c3.1-1.1,7.4,0.9,10.5,5l0,0c3.1,4.1,7.4,6.1,10.5,5l0,0c3.1-1.1,7.4,0.9,10.5,5l0,0
	c3.1,4.1,7.4,6.1,10.5,5l0,0c3.1-1.1,7.4,0.9,10.5,5l0,0c3.1,4.1,7.4,6.1,10.5,5l2.8-1"/>
<path class="st22" d="M497.2,213.6l-4.4-7.6c-2.9-5-8.4-7.4-12.3-5.2l-48.5,27.7"/>
<path class="st23" d="M488.8,218l4.4,6.6c2.9,5,2.2,10.9-1.7,13.1l-3.6,2.1l-44.9,25.6l-26.1-1.3l11.1-24.6l44.9-24.6l3.6-2.1
	C480.4,210.6,485.9,212.9,488.8,218z"/>
<path class="st22" d="M488,239.8l3.6-2.1c3.8-2.2,4.6-8.1,1.7-13.1l-4.4-6.6c-2.9-5-8.4-7.4-12.3-5.2l-3.6,2.1 M488,239.8
	l-44.9,25.6 M488,239.8l-15-24.9 M443.1,265.4l-26.1-1.3l11.1-24.6 M443.1,265.4l-15-25.9 M428.1,239.5l44.9-24.6"/>
<ellipse transform="matrix(0.8241 -0.5664 0.5664 0.8241 28.8308 201.076)" class="st24" cx="338.2" cy="54.1" rx="3.6" ry="5.2"/>
<ellipse transform="matrix(0.8241 -0.5664 0.5664 0.8241 15.1096 205.3365)" class="st24" cx="338.2" cy="78.3" rx="3.6" ry="5.2"/>
<ellipse transform="matrix(0.8241 -0.5664 0.5664 0.8241 1.3883 209.5971)" class="st24" cx="338.2" cy="102.6" rx="3.6" ry="5.2"/>
<path class="st25" d="M351.5,61l38,22"/>
<path class="st25" d="M351.5,84l38,22"/>
<path class="st25" d="M351.5,107l38,22"/>
</svg>
