<svg width="48" height="48" viewBox="0 0 48 48" fill="none" xmlns="http://www.w3.org/2000/svg">
<path d="M24 44C24 44 40 36 40 24V10L24 4L8 10V24C8 36 24 44 24 44Z" fill="#EEF8FF" stroke="#4E93B8" stroke-width="2.66667" stroke-linecap="round" stroke-linejoin="round"/>
<path d="M24 4.5V43.5" stroke="#4E93B8" stroke-width="2.67"/>
<path d="M29.5 6L29.5 40" stroke="#4E93B8" stroke-width="2.67"/>
<path d="M35 8V35" stroke="#4E93B8" stroke-width="2.67"/>
</svg>
